D:\Anita_Horvath\Local_repository\src\main\java\com\epam\bitbucket\framework\PageObject\Repositories\B_CreateRepositoriesPage.java
D:\Anita_Horvath\Local_repository\src\main\java\com\epam\bitbucket\framework\Parent.java
D:\Anita_Horvath\Local_repository\src\main\java\com\epam\bitbucket\framework\PageObject\CreateAccount\B_CompleteCreateAccountPage.java
D:\Anita_Horvath\Local_repository\src\main\java\com\epam\bitbucket\framework\PageObject\Nincsmail\NincsmailSubPage.java
D:\Anita_Horvath\Local_repository\src\main\java\com\epam\bitbucket\utility\Utility.java
D:\Anita_Horvath\Local_repository\src\main\java\com\epam\bitbucket\framework\Pageflow\Repository_flows.java
D:\Anita_Horvath\Local_repository\src\main\java\com\epam\bitbucket\framework\PageObject\CreateAccount\B_CreateAccountPage.java
D:\Anita_Horvath\Local_repository\src\main\java\com\epam\bitbucket\framework\PageObject\Nincsmail\NincsmailPage.java
D:\Anita_Horvath\Local_repository\src\main\java\com\epam\bitbucket\framework\PageObject\B_LogInPage.java
D:\Anita_Horvath\Local_repository\src\main\java\com\epam\bitbucket\framework\Pageflow\Account_flows.java
D:\Anita_Horvath\Local_repository\src\main\java\com\epam\bitbucket\framework\PageObject\Repositories\B_RepositoriesPage.java
D:\Anita_Horvath\Local_repository\src\main\java\com\epam\bitbucket\framework\PageObject\Repositories\B_RepositorySettingsPage.java
D:\Anita_Horvath\Local_repository\src\main\java\com\epam\bitbucket\framework\PageObject\B_DashboardPage.java
D:\Anita_Horvath\Local_repository\src\main\java\com\epam\bitbucket\framework\PageObject\B_HomePage.java
D:\Anita_Horvath\Local_repository\src\main\java\com\epam\bitbucket\framework\PageObject\Repositories\B_RepositoryPage.java
D:\Anita_Horvath\Local_repository\src\main\java\com\epam\bitbucket\utility\BrowserFactory.java
D:\Anita_Horvath\Local_repository\src\main\java\com\epam\bitbucket\utility\Listener.java
D:\Anita_Horvath\Local_repository\src\main\java\com\epam\bitbucket\utility\Configuration.java
